per_hour,station id,latitude,longitude,total trip starts,total trip ends,hour,month,dayofweek
2017-12-01 00:00,6,42.361199417496216,-71.06519486764228,1.0,0.0,0,12,4
2017-12-01 00:00,10,42.350406,-71.10827900000001,0.0,3.0,0,12,4
2017-12-01 00:00,12,42.33624444796878,-71.08798563480376,0.0,1.0,0,12,4
2017-12-01 00:00,19,42.347241,-71.105301,0.0,1.0,0,12,4
2017-12-01 00:00,21,42.345959,-71.082578,2.0,0.0,0,12,4
2017-12-01 00:00,25,42.341332,-71.076847,1.0,1.0,0,12,4
2017-12-01 00:00,26,42.341522,-71.068922,0.0,1.0,0,12,4
2017-12-01 00:00,29,42.363732,-71.124565,1.0,1.0,0,12,4
2017-12-01 00:00,30,42.33462893055976,-71.10407917767589,0.0,1.0,0,12,4
2017-12-01 00:00,32,42.345194289440954,-71.1016970872879,0.0,1.0,0,12,4
2017-12-01 00:00,39,42.338514601785995,-71.07404083013535,0.0,1.0,0,12,4
2017-12-01 00:00,41,42.352261,-71.12383100000001,1.0,0.0,0,12,4
2017-12-01 00:00,42,42.352583438376996,-71.06766249993595,1.0,0.0,0,12,4
2017-12-01 00:00,46,42.3436658245146,-71.08582377433777,1.0,0.0,0,12,4
2017-12-01 00:00,47,42.362811,-71.056067,1.0,0.0,0,12,4
2017-12-01 00:00,54,42.354979,-71.063348,0.0,1.0,0,12,4
2017-12-01 00:00,60,42.36075761041193,-71.07132909824031,0.0,1.0,0,12,4
2017-12-01 00:00,73,42.373231,-71.120886,1.0,0.0,0,12,4
2017-12-01 00:00,74,42.373267999999996,-71.118579,4.0,1.0,0,12,4
2017-12-01 00:00,75,42.36346469304347,-71.10057324171065,2.0,0.0,0,12,4
2017-12-01 00:00,76,42.366426000000004,-71.10549499999999,2.0,1.0,0,12,4
2017-12-01 00:00,78,42.379637,-71.09531899999999,0.0,1.0,0,12,4
2017-12-01 00:00,90,42.370677,-71.07652900000001,1.0,0.0,0,12,4
2017-12-01 00:00,91,42.366277000000004,-71.09169,1.0,1.0,0,12,4
2017-12-01 00:00,95,42.372969,-71.094445,0.0,1.0,0,12,4
2017-12-01 00:00,97,42.36919031768079,-71.11714124679565,0.0,1.0,0,12,4
2017-12-01 00:00,98,42.371848,-71.060292,0.0,1.0,0,12,4
2017-12-01 00:00,100,42.396969,-71.123024,1.0,0.0,0,12,4
2017-12-01 00:00,102,42.400877,-71.116772,0.0,1.0,0,12,4
2017-12-01 00:00,110,42.376369,-71.114025,0.0,1.0,0,12,4
2017-12-01 00:00,111,42.40449,-71.123413,0.0,1.0,0,12,4
2017-12-01 00:00,121,42.335693,-71.045859,1.0,0.0,0,12,4
2017-12-01 00:00,130,42.31750891943043,-71.06416625906604,0.0,1.0,0,12,4
2017-12-01 00:00,143,42.369885,-71.06995699999999,0.0,2.0,0,12,4
2017-12-01 00:00,157,42.353178091862524,-71.04817356923377,1.0,0.0,0,12,4
2017-12-01 00:00,160,42.33758601097239,-71.09627097845076,1.0,0.0,0,12,4
2017-12-01 00:00,178,42.359573201090434,-71.10129475593567,0.0,1.0,0,12,4
2017-12-01 00:00,179,42.35560121327927,-71.10394477844237,1.0,2.0,0,12,4
2017-12-01 00:00,185,42.365444861373994,-71.0827714204788,1.0,0.0,0,12,4
2017-12-01 00:00,190,42.365673,-71.064263,2.0,0.0,0,12,4
2017-12-01 00:00,193,42.33376472623494,-71.12046446660315,1.0,0.0,0,12,4
2017-12-01 00:00,196,42.317873293456024,-71.08243077993394,1.0,0.0,0,12,4
2017-12-01 00:00,211,42.36543154627481,-71.03625655174254,1.0,0.0,0,12,4
2017-12-01 00:00,212,42.368844082898356,-71.03977829217911,0.0,1.0,0,12,4
2017-12-01 00:00,221,42.37250864997261,-71.11305356025694,3.0,1.0,0,12,4
2017-12-01 00:00,226,42.35154734791375,-71.12126246094705,1.0,0.0,0,12,4
2017-12-01 00:00,228,42.36161932076685,-71.08043550520959,1.0,0.0,0,12,4
2017-12-01 01:00,33,42.348706,-71.097009,1.0,0.0,1,12,4
2017-12-01 01:00,46,42.3436658245146,-71.08582377433777,1.0,0.0,1,12,4
2017-12-01 01:00,63,42.34404051001636,-71.0573762655258,0.0,1.0,1,12,4
2017-12-01 01:00,71,42.383404999999996,-71.10759300000001,0.0,2.0,1,12,4
2017-12-01 01:00,76,42.366426000000004,-71.10549499999999,0.0,1.0,1,12,4
2017-12-01 01:00,91,42.366277000000004,-71.09169,1.0,0.0,1,12,4
2017-12-01 01:00,100,42.396969,-71.123024,1.0,0.0,1,12,4
2017-12-01 01:00,110,42.376369,-71.114025,1.0,0.0,1,12,4
2017-12-01 01:00,114,42.402763,-71.126908,0.0,1.0,1,12,4
2017-12-01 01:00,116,42.370803,-71.104412,0.0,1.0,1,12,4
2017-12-01 01:00,121,42.335693,-71.045859,0.0,1.0,1,12,4
2017-12-01 01:00,178,42.359573201090434,-71.10129475593567,0.0,2.0,1,12,4
2017-12-01 01:00,194,42.38614141163957,-71.07828140258789,0.0,1.0,1,12,4
2017-12-01 01:00,195,42.3720597013741,-71.07202649116515,1.0,0.0,1,12,4
2017-12-01 01:00,200,42.332817,-71.081198,0.0,1.0,1,12,4
2017-12-01 01:00,221,42.37250864997261,-71.11305356025694,1.0,0.0,1,12,4
2017-12-01 02:00,14,42.337417484597296,-71.10286116600038,0.0,1.0,2,12,4
2017-12-01 02:00,41,42.352261,-71.12383100000001,1.0,0.0,2,12,4
2017-12-01 02:00,42,42.352583438376996,-71.06766249993595,1.0,0.0,2,12,4
2017-12-01 02:00,46,42.3436658245146,-71.08582377433777,1.0,0.0,2,12,4
2017-12-01 02:00,87,42.366621,-71.114214,1.0,0.0,2,12,4
2017-12-01 02:00,88,42.374035,-71.101427,1.0,0.0,2,12,4
2017-12-01 02:00,89,42.379011,-71.119945,0.0,1.0,2,12,4
2017-12-01 02:00,100,42.396969,-71.123024,0.0,1.0,2,12,4
2017-12-01 02:00,145,42.392765999999995,-71.129042,0.0,1.0,2,12,4
2017-12-01 02:00,149,42.363796,-71.129164,0.0,1.0,2,12,4
2017-12-01 02:00,175,42.34894857235593,-71.15027189254761,0.0,1.0,2,12,4
2017-12-01 02:00,207,42.35484,-71.150226,1.0,0.0,2,12,4
2017-12-01 03:00,12,42.33624444796878,-71.08798563480376,1.0,0.0,3,12,4
2017-12-01 03:00,27,42.331184,-71.095171,0.0,1.0,3,12,4
2017-12-01 03:00,36,42.34976701008725,-71.0773265361786,1.0,0.0,3,12,4
2017-12-01 03:00,41,42.352261,-71.12383100000001,1.0,0.0,3,12,4
2017-12-01 03:00,46,42.3436658245146,-71.08582377433777,0.0,1.0,3,12,4
2017-12-01 03:00,67,42.3581,-71.093198,1.0,0.0,3,12,4
2017-12-01 03:00,80,42.3621312344991,-71.09115600585936,0.0,1.0,3,12,4
2017-12-01 03:00,99,42.385582,-71.113341,1.0,0.0,3,12,4
2017-12-01 03:00,100,42.396969,-71.123024,0.0,1.0,3,12,4
2017-12-01 03:00,193,42.33376472623494,-71.12046446660315,0.0,1.0,3,12,4
2017-12-01 04:00,49,42.351146,-71.066289,0.0,1.0,4,12,4
2017-12-01 04:00,67,42.3581,-71.093198,1.0,0.0,4,12,4
2017-12-01 04:00,80,42.3621312344991,-71.09115600585936,1.0,0.0,4,12,4
2017-12-01 04:00,88,42.374035,-71.101427,0.0,1.0,4,12,4
2017-12-01 04:00,90,42.370677,-71.07652900000001,0.0,1.0,4,12,4
2017-12-01 04:00,110,42.376369,-71.114025,1.0,0.0,4,12,4
2017-12-01 04:00,178,42.359573201090434,-71.10129475593567,0.0,1.0,4,12,4
2017-12-01 04:00,205,42.30785224238503,-71.06512248516083,1.0,0.0,4,12,4
2017-12-01 05:00,22,42.352175,-71.055547,1.0,0.0,5,12,4
2017-12-01 05:00,29,42.363732,-71.124565,1.0,1.0,5,12,4
2017-12-01 05:00,33,42.348706,-71.097009,0.0,1.0,5,12,4
2017-12-01 05:00,40,42.363871,-71.050877,2.0,0.0,5,12,4
2017-12-01 05:00,47,42.362811,-71.056067,1.0,0.0,5,12,4
2017-12-01 05:00,48,42.356755,-71.05540699999999,0.0,1.0,5,12,4
2017-12-01 05:00,54,42.354979,-71.063348,1.0,0.0,5,12,4
2017-12-01 05:00,66,42.34922469338298,-71.13275302578586,1.0,0.0,5,12,4
2017-12-01 05:00,69,42.341598,-71.123338,1.0,0.0,5,12,4
2017-12-01 05:00,70,42.371991654086756,-71.12226963043213,0.0,1.0,5,12,4
2017-12-01 05:00,73,42.373231,-71.120886,0.0,1.0,5,12,4
2017-12-01 05:00,81,42.352409,-71.062679,0.0,1.0,5,12,4
2017-12-01 05:00,89,42.379011,-71.119945,1.0,0.0,5,12,4
2017-12-01 05:00,90,42.370677,-71.07652900000001,1.0,0.0,5,12,4
2017-12-01 05:00,91,42.366277000000004,-71.09169,0.0,1.0,5,12,4
2017-12-01 05:00,98,42.371848,-71.060292,1.0,1.0,5,12,4
2017-12-01 05:00,100,42.396969,-71.123024,0.0,1.0,5,12,4
2017-12-01 05:00,102,42.400877,-71.116772,1.0,0.0,5,12,4
2017-12-01 05:00,104,42.380287,-71.125107,1.0,0.0,5,12,4
2017-12-01 05:00,121,42.335693,-71.045859,1.0,0.0,5,12,4
2017-12-01 05:00,139,42.361780439606044,-71.10809952020645,1.0,0.0,5,12,4
2017-12-01 05:00,149,42.363796,-71.129164,0.0,1.0,5,12,4
2017-12-01 05:00,157,42.353178091862524,-71.04817356923377,0.0,2.0,5,12,4
2017-12-01 05:00,169,42.378965,-71.068607,1.0,0.0,5,12,4
2017-12-01 05:00,175,42.34894857235593,-71.15027189254761,1.0,0.0,5,12,4
2017-12-01 05:00,186,42.3481,-71.03764,0.0,1.0,5,12,4
2017-12-01 05:00,192,42.354659000000005,-71.05318100000001,0.0,1.0,5,12,4
2017-12-01 05:00,218,42.351586001198456,-71.04569256305693,0.0,1.0,5,12,4
2017-12-01 06:00,4,42.345392,-71.069616,2.0,0.0,6,12,4
2017-12-01 06:00,6,42.361199417496216,-71.06519486764228,1.0,0.0,6,12,4
2017-12-01 06:00,9,42.35062177153799,-71.11288218766276,0.0,1.0,6,12,4
2017-12-01 06:00,10,42.350406,-71.10827900000001,0.0,1.0,6,12,4
2017-12-01 06:00,11,42.338629,-71.1065,0.0,2.0,6,12,4
2017-12-01 06:00,12,42.33624444796878,-71.08798563480376,1.0,1.0,6,12,4
2017-12-01 06:00,14,42.337417484597296,-71.10286116600038,0.0,3.0,6,12,4
2017-12-01 06:00,16,42.34807412317439,-71.07657015323639,0.0,3.0,6,12,4
2017-12-01 06:00,20,42.35991176110118,-71.0514298081398,1.0,0.0,6,12,4
2017-12-01 06:00,21,42.345959,-71.082578,1.0,1.0,6,12,4
2017-12-01 06:00,22,42.352175,-71.055547,2.0,2.0,6,12,4
2017-12-01 06:00,23,42.35892,-71.057629,1.0,1.0,6,12,4
2017-12-01 06:00,25,42.341332,-71.076847,5.0,0.0,6,12,4
2017-12-01 06:00,26,42.341522,-71.068922,3.0,0.0,6,12,4
2017-12-01 06:00,30,42.33462893055976,-71.10407917767589,1.0,0.0,6,12,4
2017-12-01 06:00,33,42.348706,-71.097009,2.0,0.0,6,12,4
2017-12-01 06:00,35,42.35581929709065,-71.05887290099417,0.0,2.0,6,12,4
2017-12-01 06:00,36,42.34976701008725,-71.0773265361786,0.0,1.0,6,12,4
2017-12-01 06:00,39,42.338514601785995,-71.07404083013535,0.0,1.0,6,12,4
2017-12-01 06:00,40,42.363871,-71.050877,3.0,1.0,6,12,4
2017-12-01 06:00,42,42.352583438376996,-71.06766249993595,1.0,1.0,6,12,4
2017-12-01 06:00,43,42.357143,-71.050699,1.0,1.0,6,12,4
2017-12-01 06:00,44,42.360613,-71.057452,1.0,0.0,6,12,4
2017-12-01 06:00,46,42.3436658245146,-71.08582377433777,4.0,1.0,6,12,4
2017-12-01 06:00,47,42.362811,-71.056067,3.0,0.0,6,12,4
2017-12-01 06:00,48,42.356755,-71.05540699999999,0.0,2.0,6,12,4
2017-12-01 06:00,49,42.351146,-71.066289,0.0,2.0,6,12,4
2017-12-01 06:00,51,42.3350989929096,-71.07903778553009,0.0,1.0,6,12,4
2017-12-01 06:00,59,42.351356,-71.05936700000001,1.0,0.0,6,12,4
2017-12-01 06:00,60,42.36075761041193,-71.07132909824031,0.0,1.0,6,12,4
2017-12-01 06:00,67,42.3581,-71.093198,1.0,3.0,6,12,4
2017-12-01 06:00,69,42.341598,-71.123338,1.0,0.0,6,12,4
2017-12-01 06:00,72,42.362613,-71.08410500000001,1.0,1.0,6,12,4
2017-12-01 06:00,73,42.373231,-71.120886,1.0,1.0,6,12,4
2017-12-01 06:00,74,42.373267999999996,-71.118579,0.0,1.0,6,12,4
2017-12-01 06:00,76,42.366426000000004,-71.10549499999999,1.0,0.0,6,12,4
2017-12-01 06:00,78,42.379637,-71.09531899999999,1.0,0.0,6,12,4
2017-12-01 06:00,79,42.37842,-71.10566800000001,2.0,0.0,6,12,4
2017-12-01 06:00,80,42.3621312344991,-71.09115600585936,0.0,1.0,6,12,4
2017-12-01 06:00,81,42.352409,-71.062679,2.0,1.0,6,12,4
2017-12-01 06:00,82,42.338254270769454,-71.13905482012342,1.0,2.0,6,12,4
2017-12-01 06:00,85,42.378338,-71.048927,0.0,1.0,6,12,4
2017-12-01 06:00,88,42.374035,-71.101427,1.0,1.0,6,12,4
2017-12-01 06:00,91,42.366277000000004,-71.09169,0.0,4.0,6,12,4
2017-12-01 06:00,95,42.372969,-71.094445,1.0,0.0,6,12,4
2017-12-01 06:00,98,42.371848,-71.060292,1.0,0.0,6,12,4
2017-12-01 06:00,99,42.385582,-71.113341,2.0,0.0,6,12,4
2017-12-01 06:00,100,42.396969,-71.123024,1.0,1.0,6,12,4
2017-12-01 06:00,107,42.3625,-71.08821999999999,0.0,1.0,6,12,4
2017-12-01 06:00,115,42.387995000000004,-71.119084,4.0,0.0,6,12,4
2017-12-01 06:00,116,42.370803,-71.104412,1.0,0.0,6,12,4
2017-12-01 06:00,117,42.366095,-71.086388,0.0,2.0,6,12,4
2017-12-01 06:00,118,42.397828000000004,-71.130516,1.0,0.0,6,12,4
2017-12-01 06:00,131,42.32293117195949,-71.10014140605927,1.0,0.0,6,12,4
2017-12-01 06:00,133,42.310579,-71.107341,1.0,0.0,6,12,4
2017-12-01 06:00,149,42.363796,-71.129164,0.0,1.0,6,12,4
2017-12-01 06:00,150,42.344136999999996,-71.05260799999999,1.0,1.0,6,12,4
2017-12-01 06:00,151,42.358155,-71.05216300000001,0.0,1.0,6,12,4
2017-12-01 06:00,152,42.345901,-71.063187,1.0,0.0,6,12,4
2017-12-01 06:00,157,42.353178091862524,-71.04817356923377,0.0,1.0,6,12,4
2017-12-01 06:00,161,42.3391085,-71.05144320000001,1.0,0.0,6,12,4
2017-12-01 06:00,163,42.344792,-71.044024,0.0,1.0,6,12,4
2017-12-01 06:00,169,42.378965,-71.068607,1.0,0.0,6,12,4
2017-12-01 06:00,177,42.36264779118595,-71.1000609397888,1.0,2.0,6,12,4
2017-12-01 06:00,179,42.35560121327927,-71.10394477844237,1.0,0.0,6,12,4
2017-12-01 06:00,184,42.35775309465199,-71.10393404960631,0.0,1.0,6,12,4
2017-12-01 06:00,186,42.3481,-71.03764,1.0,1.0,6,12,4
2017-12-01 06:00,190,42.365673,-71.064263,11.0,2.0,6,12,4
2017-12-01 06:00,192,42.354659000000005,-71.05318100000001,0.0,1.0,6,12,4
2017-12-01 06:00,218,42.351586001198456,-71.04569256305693,0.0,1.0,6,12,4
2017-12-01 06:00,225,42.37119727759414,-71.09759867191316,1.0,0.0,6,12,4
2017-12-01 07:00,4,42.345392,-71.069616,4.0,1.0,7,12,4
2017-12-01 07:00,5,42.341814,-71.090179,1.0,3.0,7,12,4
2017-12-01 07:00,6,42.361199417496216,-71.06519486764228,2.0,0.0,7,12,4
2017-12-01 07:00,7,42.35294080239233,-71.04388475418091,0.0,1.0,7,12,4
2017-12-01 07:00,8,42.353334000000004,-71.137313,1.0,0.0,7,12,4
2017-12-01 07:00,9,42.35062177153799,-71.11288218766276,2.0,1.0,7,12,4
2017-12-01 07:00,10,42.350406,-71.10827900000001,0.0,2.0,7,12,4
2017-12-01 07:00,11,42.338629,-71.1065,0.0,3.0,7,12,4
2017-12-01 07:00,12,42.33624444796878,-71.08798563480376,1.0,0.0,7,12,4
2017-12-01 07:00,14,42.337417484597296,-71.10286116600038,0.0,3.0,7,12,4
2017-12-01 07:00,15,42.3615457081725,-71.13776206970216,1.0,1.0,7,12,4
2017-12-01 07:00,16,42.34807412317439,-71.07657015323639,11.0,4.0,7,12,4
2017-12-01 07:00,17,42.365064000000004,-71.119233,2.0,0.0,7,12,4
2017-12-01 07:00,19,42.347241,-71.105301,2.0,0.0,7,12,4
2017-12-01 07:00,20,42.35991176110118,-71.0514298081398,6.0,1.0,7,12,4
2017-12-01 07:00,21,42.345959,-71.082578,4.0,3.0,7,12,4
2017-12-01 07:00,22,42.352175,-71.055547,9.0,6.0,7,12,4
2017-12-01 07:00,23,42.35892,-71.057629,2.0,4.0,7,12,4
2017-12-01 07:00,24,42.35148193460858,-71.04436084628105,0.0,3.0,7,12,4
2017-12-01 07:00,25,42.341332,-71.076847,3.0,0.0,7,12,4
2017-12-01 07:00,26,42.341522,-71.068922,1.0,2.0,7,12,4
2017-12-01 07:00,27,42.331184,-71.095171,2.0,0.0,7,12,4
2017-12-01 07:00,30,42.33462893055976,-71.10407917767589,1.0,2.0,7,12,4
2017-12-01 07:00,31,42.34881026188269,-71.04167744055303,1.0,2.0,7,12,4
2017-12-01 07:00,32,42.345194289440954,-71.1016970872879,1.0,1.0,7,12,4
2017-12-01 07:00,33,42.348706,-71.097009,5.0,2.0,7,12,4
2017-12-01 07:00,35,42.35581929709065,-71.05887290099417,1.0,2.0,7,12,4
2017-12-01 07:00,36,42.34976701008725,-71.0773265361786,3.0,8.0,7,12,4
2017-12-01 07:00,39,42.338514601785995,-71.07404083013535,3.0,5.0,7,12,4
2017-12-01 07:00,40,42.363871,-71.050877,1.0,1.0,7,12,4
2017-12-01 07:00,42,42.352583438376996,-71.06766249993595,1.0,0.0,7,12,4
2017-12-01 07:00,43,42.357143,-71.050699,2.0,2.0,7,12,4
2017-12-01 07:00,44,42.360613,-71.057452,2.0,1.0,7,12,4
2017-12-01 07:00,46,42.3436658245146,-71.08582377433777,3.0,1.0,7,12,4
2017-12-01 07:00,47,42.362811,-71.056067,5.0,2.0,7,12,4
2017-12-01 07:00,48,42.356755,-71.05540699999999,1.0,6.0,7,12,4
2017-12-01 07:00,49,42.351146,-71.066289,0.0,1.0,7,12,4
2017-12-01 07:00,54,42.354979,-71.063348,1.0,1.0,7,12,4
2017-12-01 07:00,57,42.340542615516355,-71.08138847914233,6.0,0.0,7,12,4
2017-12-01 07:00,58,42.355549323361345,-71.07284188270569,2.0,1.0,7,12,4
2017-12-01 07:00,59,42.351356,-71.05936700000001,0.0,1.0,7,12,4
2017-12-01 07:00,60,42.36075761041193,-71.07132909824031,3.0,1.0,7,12,4
2017-12-01 07:00,63,42.34404051001636,-71.0573762655258,1.0,0.0,7,12,4
2017-12-01 07:00,66,42.34922469338298,-71.13275302578586,1.0,0.0,7,12,4
2017-12-01 07:00,67,42.3581,-71.093198,2.0,4.0,7,12,4
2017-12-01 07:00,68,42.36507,-71.1031,0.0,2.0,7,12,4
2017-12-01 07:00,69,42.341598,-71.123338,3.0,1.0,7,12,4
2017-12-01 07:00,70,42.371991654086756,-71.12226963043213,0.0,1.0,7,12,4
2017-12-01 07:00,71,42.383404999999996,-71.10759300000001,1.0,0.0,7,12,4
2017-12-01 07:00,72,42.362613,-71.08410500000001,0.0,2.0,7,12,4
2017-12-01 07:00,73,42.373231,-71.120886,0.0,1.0,7,12,4
2017-12-01 07:00,74,42.373267999999996,-71.118579,1.0,5.0,7,12,4
2017-12-01 07:00,76,42.366426000000004,-71.10549499999999,3.0,3.0,7,12,4
2017-12-01 07:00,77,42.386844,-71.09812,1.0,0.0,7,12,4
2017-12-01 07:00,78,42.379637,-71.09531899999999,2.0,0.0,7,12,4
2017-12-01 07:00,79,42.37842,-71.10566800000001,2.0,0.0,7,12,4
2017-12-01 07:00,80,42.3621312344991,-71.09115600585936,0.0,9.0,7,12,4
2017-12-01 07:00,81,42.352409,-71.062679,1.0,1.0,7,12,4
2017-12-01 07:00,82,42.338254270769454,-71.13905482012342,3.0,0.0,7,12,4
2017-12-01 07:00,84,42.366981,-71.076472,0.0,4.0,7,12,4
2017-12-01 07:00,85,42.378338,-71.048927,0.0,2.0,7,12,4
2017-12-01 07:00,87,42.366621,-71.114214,2.0,1.0,7,12,4
2017-12-01 07:00,88,42.374035,-71.101427,2.0,1.0,7,12,4
2017-12-01 07:00,90,42.370677,-71.07652900000001,0.0,2.0,7,12,4
2017-12-01 07:00,91,42.366277000000004,-71.09169,4.0,3.0,7,12,4
2017-12-01 07:00,93,42.320339735157226,-71.05118036270143,1.0,1.0,7,12,4
2017-12-01 07:00,94,42.375603000000005,-71.06460799999999,1.0,0.0,7,12,4
2017-12-01 07:00,95,42.372969,-71.094445,2.0,1.0,7,12,4
2017-12-01 07:00,96,42.373379,-71.111075,2.0,1.0,7,12,4
2017-12-01 07:00,97,42.36919031768079,-71.11714124679565,1.0,0.0,7,12,4
2017-12-01 07:00,98,42.371848,-71.060292,4.0,1.0,7,12,4
2017-12-01 07:00,100,42.396969,-71.123024,0.0,6.0,7,12,4
2017-12-01 07:00,102,42.400877,-71.116772,1.0,0.0,7,12,4
2017-12-01 07:00,105,42.35721850317653,-71.1138716340065,3.0,1.0,7,12,4
2017-12-01 07:00,107,42.3625,-71.08821999999999,1.0,5.0,7,12,4
2017-12-01 07:00,108,42.377945000000004,-71.116865,1.0,0.0,7,12,4
2017-12-01 07:00,109,42.36590788445085,-71.06446668505669,4.0,0.0,7,12,4
2017-12-01 07:00,111,42.40449,-71.123413,2.0,0.0,7,12,4
2017-12-01 07:00,114,42.402763,-71.126908,2.0,0.0,7,12,4
2017-12-01 07:00,115,42.387995000000004,-71.119084,10.0,1.0,7,12,4
2017-12-01 07:00,117,42.366095,-71.086388,2.0,2.0,7,12,4
2017-12-01 07:00,118,42.397828000000004,-71.130516,3.0,0.0,7,12,4
2017-12-01 07:00,119,42.335741,-71.03877,3.0,0.0,7,12,4
2017-12-01 07:00,121,42.335693,-71.045859,3.0,0.0,7,12,4
2017-12-01 07:00,124,42.309053999999996,-71.11543,1.0,0.0,7,12,4
2017-12-01 07:00,125,42.32176525723952,-71.10984160567114,1.0,1.0,7,12,4
2017-12-01 07:00,126,42.315692,-71.09863399999999,1.0,0.0,7,12,4
2017-12-01 07:00,130,42.31750891943043,-71.06416625906604,2.0,1.0,7,12,4
2017-12-01 07:00,131,42.32293117195949,-71.10014140605927,2.0,0.0,7,12,4
2017-12-01 07:00,133,42.310579,-71.107341,1.0,1.0,7,12,4
2017-12-01 07:00,135,42.344827,-71.028664,0.0,2.0,7,12,4
2017-12-01 07:00,136,42.344796,-71.031614,0.0,1.0,7,12,4
2017-12-01 07:00,137,42.398365000000005,-71.10781800000001,1.0,0.0,7,12,4
2017-12-01 07:00,139,42.361780439606044,-71.10809952020645,3.0,0.0,7,12,4
2017-12-01 07:00,140,42.388965999999996,-71.132788,2.0,0.0,7,12,4
2017-12-01 07:00,141,42.36356015842989,-71.08216792345047,1.0,2.0,7,12,4
2017-12-01 07:00,145,42.392765999999995,-71.129042,2.0,0.0,7,12,4
2017-12-01 07:00,149,42.363796,-71.129164,1.0,1.0,7,12,4
2017-12-01 07:00,150,42.344136999999996,-71.05260799999999,0.0,1.0,7,12,4
2017-12-01 07:00,151,42.358155,-71.05216300000001,2.0,5.0,7,12,4
2017-12-01 07:00,157,42.353178091862524,-71.04817356923377,2.0,4.0,7,12,4
2017-12-01 07:00,161,42.3391085,-71.05144320000001,1.0,0.0,7,12,4
2017-12-01 07:00,163,42.344792,-71.044024,0.0,1.0,7,12,4
2017-12-01 07:00,169,42.378965,-71.068607,3.0,0.0,7,12,4
2017-12-01 07:00,171,42.37408991426522,-71.06905996799469,1.0,1.0,7,12,4
2017-12-01 07:00,175,42.34894857235593,-71.15027189254761,1.0,0.0,7,12,4
2017-12-01 07:00,176,42.38674802045056,-71.11901879310608,1.0,0.0,7,12,4
2017-12-01 07:00,177,42.36264779118595,-71.1000609397888,3.0,5.0,7,12,4
2017-12-01 07:00,178,42.359573201090434,-71.10129475593567,0.0,1.0,7,12,4
2017-12-01 07:00,179,42.35560121327927,-71.10394477844237,2.0,2.0,7,12,4
2017-12-01 07:00,180,42.37478628706384,-71.13320231437683,0.0,1.0,7,12,4
2017-12-01 07:00,181,42.381650612901176,-71.13426981498378,1.0,0.0,7,12,4
2017-12-01 07:00,183,42.395588457167094,-71.14260613918304,0.0,2.0,7,12,4
2017-12-01 07:00,184,42.35775309465199,-71.10393404960631,1.0,1.0,7,12,4
2017-12-01 07:00,185,42.365444861373994,-71.0827714204788,1.0,0.0,7,12,4
2017-12-01 07:00,189,42.362427842912396,-71.08495473861693,1.0,4.0,7,12,4
2017-12-01 07:00,190,42.365673,-71.064263,17.0,3.0,7,12,4
2017-12-01 07:00,192,42.354659000000005,-71.05318100000001,1.0,5.0,7,12,4
2017-12-01 07:00,195,42.3720597013741,-71.07202649116515,1.0,0.0,7,12,4
2017-12-01 07:00,202,42.30791,-71.080952,0.0,1.0,7,12,4
2017-12-01 07:00,208,42.350570000000005,-71.16649100000001,1.0,0.0,7,12,4
2017-12-01 07:00,209,42.379771999999996,-71.02744799999999,1.0,0.0,7,12,4
2017-12-01 07:00,211,42.36543154627481,-71.03625655174254,1.0,0.0,7,12,4
2017-12-01 07:00,212,42.368844082898356,-71.03977829217911,0.0,1.0,7,12,4
2017-12-01 07:00,214,42.375339000000004,-71.031304,0.0,1.0,7,12,4
2017-12-01 07:00,218,42.351586001198456,-71.04569256305693,0.0,5.0,7,12,4
2017-12-01 07:00,222,42.343749,-71.062256,1.0,0.0,7,12,4
2017-12-01 07:00,225,42.37119727759414,-71.09759867191316,2.0,0.0,7,12,4
2017-12-01 08:00,3,42.340115122492364,-71.10061883926393,0.0,1.0,8,12,4
2017-12-01 08:00,4,42.345392,-71.069616,9.0,2.0,8,12,4
2017-12-01 08:00,5,42.341814,-71.090179,2.0,4.0,8,12,4
2017-12-01 08:00,6,42.361199417496216,-71.06519486764228,2.0,4.0,8,12,4
2017-12-01 08:00,7,42.35294080239233,-71.04388475418091,0.0,2.0,8,12,4
2017-12-01 08:00,8,42.353334000000004,-71.137313,2.0,0.0,8,12,4
2017-12-01 08:00,9,42.35062177153799,-71.11288218766276,5.0,1.0,8,12,4
2017-12-01 08:00,10,42.350406,-71.10827900000001,2.0,1.0,8,12,4
2017-12-01 08:00,11,42.338629,-71.1065,2.0,8.0,8,12,4
2017-12-01 08:00,12,42.33624444796878,-71.08798563480376,5.0,1.0,8,12,4
2017-12-01 08:00,14,42.337417484597296,-71.10286116600038,2.0,3.0,8,12,4
2017-12-01 08:00,15,42.3615457081725,-71.13776206970216,2.0,0.0,8,12,4
2017-12-01 08:00,16,42.34807412317439,-71.07657015323639,11.0,11.0,8,12,4
2017-12-01 08:00,17,42.365064000000004,-71.119233,4.0,3.0,8,12,4
2017-12-01 08:00,19,42.347241,-71.105301,4.0,1.0,8,12,4
2017-12-01 08:00,20,42.35991176110118,-71.0514298081398,6.0,3.0,8,12,4
2017-12-01 08:00,21,42.345959,-71.082578,8.0,16.0,8,12,4
2017-12-01 08:00,22,42.352175,-71.055547,19.0,26.0,8,12,4
2017-12-01 08:00,23,42.35892,-71.057629,6.0,9.0,8,12,4
2017-12-01 08:00,24,42.35148193460858,-71.04436084628105,3.0,6.0,8,12,4
2017-12-01 08:00,25,42.341332,-71.076847,6.0,2.0,8,12,4
2017-12-01 08:00,26,42.341522,-71.068922,3.0,2.0,8,12,4
2017-12-01 08:00,27,42.331184,-71.095171,3.0,1.0,8,12,4
2017-12-01 08:00,29,42.363732,-71.124565,1.0,1.0,8,12,4
2017-12-01 08:00,30,42.33462893055976,-71.10407917767589,1.0,1.0,8,12,4
2017-12-01 08:00,31,42.34881026188269,-71.04167744055303,1.0,8.0,8,12,4
2017-12-01 08:00,32,42.345194289440954,-71.1016970872879,4.0,3.0,8,12,4
2017-12-01 08:00,33,42.348706,-71.097009,8.0,7.0,8,12,4
2017-12-01 08:00,35,42.35581929709065,-71.05887290099417,3.0,4.0,8,12,4
2017-12-01 08:00,36,42.34976701008725,-71.0773265361786,5.0,12.0,8,12,4
2017-12-01 08:00,39,42.338514601785995,-71.07404083013535,12.0,10.0,8,12,4
2017-12-01 08:00,40,42.363871,-71.050877,10.0,9.0,8,12,4
2017-12-01 08:00,41,42.352261,-71.12383100000001,1.0,0.0,8,12,4
2017-12-01 08:00,42,42.352583438376996,-71.06766249993595,7.0,7.0,8,12,4
2017-12-01 08:00,43,42.357143,-71.050699,2.0,1.0,8,12,4
2017-12-01 08:00,44,42.360613,-71.057452,1.0,5.0,8,12,4
2017-12-01 08:00,46,42.3436658245146,-71.08582377433777,4.0,3.0,8,12,4
2017-12-01 08:00,47,42.362811,-71.056067,10.0,2.0,8,12,4
2017-12-01 08:00,48,42.356755,-71.05540699999999,2.0,13.0,8,12,4
2017-12-01 08:00,49,42.351146,-71.066289,3.0,5.0,8,12,4
2017-12-01 08:00,51,42.3350989929096,-71.07903778553009,0.0,1.0,8,12,4
2017-12-01 08:00,54,42.354979,-71.063348,1.0,3.0,8,12,4
2017-12-01 08:00,56,42.32854046293402,-71.08416482806204,1.0,1.0,8,12,4
2017-12-01 08:00,57,42.340542615516355,-71.08138847914233,6.0,1.0,8,12,4
2017-12-01 08:00,58,42.355549323361345,-71.07284188270569,6.0,2.0,8,12,4
2017-12-01 08:00,59,42.351356,-71.05936700000001,1.0,4.0,8,12,4
2017-12-01 08:00,60,42.36075761041193,-71.07132909824031,12.0,11.0,8,12,4
2017-12-01 08:00,63,42.34404051001636,-71.0573762655258,3.0,0.0,8,12,4
2017-12-01 08:00,66,42.34922469338298,-71.13275302578586,8.0,0.0,8,12,4
2017-12-01 08:00,67,42.3581,-71.093198,10.0,20.0,8,12,4
2017-12-01 08:00,68,42.36507,-71.1031,6.0,5.0,8,12,4
2017-12-01 08:00,69,42.341598,-71.123338,5.0,0.0,8,12,4
2017-12-01 08:00,70,42.371991654086756,-71.12226963043213,0.0,7.0,8,12,4
2017-12-01 08:00,71,42.383404999999996,-71.10759300000001,7.0,2.0,8,12,4
2017-12-01 08:00,72,42.362613,-71.08410500000001,0.0,3.0,8,12,4
2017-12-01 08:00,73,42.373231,-71.120886,1.0,9.0,8,12,4
2017-12-01 08:00,74,42.373267999999996,-71.118579,1.0,8.0,8,12,4
2017-12-01 08:00,75,42.36346469304347,-71.10057324171065,1.0,3.0,8,12,4
2017-12-01 08:00,76,42.366426000000004,-71.10549499999999,4.0,7.0,8,12,4
2017-12-01 08:00,77,42.386844,-71.09812,3.0,1.0,8,12,4
2017-12-01 08:00,78,42.379637,-71.09531899999999,1.0,2.0,8,12,4
2017-12-01 08:00,79,42.37842,-71.10566800000001,5.0,2.0,8,12,4
2017-12-01 08:00,80,42.3621312344991,-71.09115600585936,0.0,19.0,8,12,4
2017-12-01 08:00,81,42.352409,-71.062679,0.0,2.0,8,12,4
2017-12-01 08:00,82,42.338254270769454,-71.13905482012342,1.0,0.0,8,12,4
2017-12-01 08:00,84,42.366981,-71.076472,0.0,3.0,8,12,4
2017-12-01 08:00,85,42.378338,-71.048927,4.0,4.0,8,12,4
2017-12-01 08:00,87,42.366621,-71.114214,6.0,0.0,8,12,4
2017-12-01 08:00,88,42.374035,-71.101427,6.0,2.0,8,12,4
2017-12-01 08:00,89,42.379011,-71.119945,0.0,3.0,8,12,4
2017-12-01 08:00,90,42.370677,-71.07652900000001,7.0,6.0,8,12,4
2017-12-01 08:00,91,42.366277000000004,-71.09169,0.0,9.0,8,12,4
2017-12-01 08:00,92,42.314507,-71.041269,0.0,1.0,8,12,4
2017-12-01 08:00,93,42.320339735157226,-71.05118036270143,2.0,0.0,8,12,4
2017-12-01 08:00,94,42.375603000000005,-71.06460799999999,9.0,1.0,8,12,4
2017-12-01 08:00,95,42.372969,-71.094445,8.0,1.0,8,12,4
2017-12-01 08:00,96,42.373379,-71.111075,2.0,1.0,8,12,4
2017-12-01 08:00,97,42.36919031768079,-71.11714124679565,1.0,0.0,8,12,4
2017-12-01 08:00,98,42.371848,-71.060292,10.0,3.0,8,12,4
2017-12-01 08:00,99,42.385582,-71.113341,2.0,0.0,8,12,4
2017-12-01 08:00,100,42.396969,-71.123024,2.0,6.0,8,12,4
2017-12-01 08:00,102,42.400877,-71.116772,1.0,0.0,8,12,4
2017-12-01 08:00,103,42.346563,-71.128374,2.0,0.0,8,12,4
2017-12-01 08:00,104,42.380287,-71.125107,1.0,1.0,8,12,4
2017-12-01 08:00,105,42.35721850317653,-71.1138716340065,6.0,1.0,8,12,4
2017-12-01 08:00,107,42.3625,-71.08821999999999,2.0,13.0,8,12,4
2017-12-01 08:00,108,42.377945000000004,-71.116865,1.0,5.0,8,12,4
2017-12-01 08:00,109,42.36590788445085,-71.06446668505669,21.0,1.0,8,12,4
2017-12-01 08:00,110,42.376369,-71.114025,1.0,1.0,8,12,4
2017-12-01 08:00,111,42.40449,-71.123413,1.0,0.0,8,12,4
2017-12-01 08:00,112,42.406302000000004,-71.132446,2.0,0.0,8,12,4
2017-12-01 08:00,114,42.402763,-71.126908,6.0,0.0,8,12,4
2017-12-01 08:00,115,42.387995000000004,-71.119084,7.0,2.0,8,12,4
2017-12-01 08:00,116,42.370803,-71.104412,8.0,1.0,8,12,4
2017-12-01 08:00,117,42.366095,-71.086388,3.0,9.0,8,12,4
2017-12-01 08:00,118,42.397828000000004,-71.130516,3.0,0.0,8,12,4
2017-12-01 08:00,119,42.335741,-71.03877,4.0,0.0,8,12,4
2017-12-01 08:00,121,42.335693,-71.045859,7.0,0.0,8,12,4
2017-12-01 08:00,125,42.32176525723952,-71.10984160567114,4.0,0.0,8,12,4
2017-12-01 08:00,126,42.315692,-71.09863399999999,1.0,0.0,8,12,4
2017-12-01 08:00,130,42.31750891943043,-71.06416625906604,1.0,0.0,8,12,4
2017-12-01 08:00,131,42.32293117195949,-71.10014140605927,2.0,1.0,8,12,4
2017-12-01 08:00,133,42.310579,-71.107341,2.0,1.0,8,12,4
2017-12-01 08:00,135,42.344827,-71.028664,0.0,6.0,8,12,4
2017-12-01 08:00,136,42.344796,-71.031614,0.0,5.0,8,12,4
2017-12-01 08:00,137,42.398365000000005,-71.10781800000001,2.0,0.0,8,12,4
2017-12-01 08:00,139,42.361780439606044,-71.10809952020645,4.0,0.0,8,12,4
2017-12-01 08:00,140,42.388965999999996,-71.132788,1.0,1.0,8,12,4
2017-12-01 08:00,141,42.36356015842989,-71.08216792345047,2.0,5.0,8,12,4
2017-12-01 08:00,143,42.369885,-71.06995699999999,5.0,4.0,8,12,4
2017-12-01 08:00,145,42.392765999999995,-71.129042,4.0,0.0,8,12,4
2017-12-01 08:00,149,42.363796,-71.129164,6.0,0.0,8,12,4
2017-12-01 08:00,150,42.344136999999996,-71.05260799999999,1.0,2.0,8,12,4
2017-12-01 08:00,151,42.358155,-71.05216300000001,3.0,6.0,8,12,4
2017-12-01 08:00,152,42.345901,-71.063187,3.0,1.0,8,12,4
2017-12-01 08:00,157,42.353178091862524,-71.04817356923377,4.0,7.0,8,12,4
2017-12-01 08:00,159,42.327972700000004,-71.11089709999999,0.0,1.0,8,12,4
2017-12-01 08:00,161,42.3391085,-71.05144320000001,8.0,0.0,8,12,4
2017-12-01 08:00,169,42.378965,-71.068607,3.0,0.0,8,12,4
2017-12-01 08:00,171,42.37408991426522,-71.06905996799469,2.0,0.0,8,12,4
2017-12-01 08:00,173,42.3106,-71.0539,1.0,0.0,8,12,4
2017-12-01 08:00,175,42.34894857235593,-71.15027189254761,1.0,0.0,8,12,4
2017-12-01 08:00,176,42.38674802045056,-71.11901879310608,1.0,0.0,8,12,4
2017-12-01 08:00,177,42.36264779118595,-71.1000609397888,3.0,0.0,8,12,4
2017-12-01 08:00,178,42.359573201090434,-71.10129475593567,0.0,4.0,8,12,4
2017-12-01 08:00,179,42.35560121327927,-71.10394477844237,11.0,5.0,8,12,4
2017-12-01 08:00,182,42.36769018024484,-71.07116281986238,5.0,0.0,8,12,4
2017-12-01 08:00,183,42.395588457167094,-71.14260613918304,2.0,0.0,8,12,4
2017-12-01 08:00,184,42.35775309465199,-71.10393404960631,5.0,3.0,8,12,4
2017-12-01 08:00,185,42.365444861373994,-71.0827714204788,0.0,3.0,8,12,4
2017-12-01 08:00,186,42.3481,-71.03764,1.0,2.0,8,12,4
2017-12-01 08:00,189,42.362427842912396,-71.08495473861693,5.0,6.0,8,12,4
2017-12-01 08:00,190,42.365673,-71.064263,2.0,0.0,8,12,4
2017-12-01 08:00,192,42.354659000000005,-71.05318100000001,0.0,8.0,8,12,4
2017-12-01 08:00,193,42.33376472623494,-71.12046446660315,3.0,1.0,8,12,4
2017-12-01 08:00,194,42.38614141163957,-71.07828140258789,1.0,0.0,8,12,4
2017-12-01 08:00,195,42.3720597013741,-71.07202649116515,2.0,0.0,8,12,4
2017-12-01 08:00,196,42.317873293456024,-71.08243077993394,1.0,0.0,8,12,4
2017-12-01 08:00,197,42.32143814183195,-71.09126061201096,1.0,0.0,8,12,4
2017-12-01 08:00,201,42.316902,-71.091946,0.0,1.0,8,12,4
2017-12-01 08:00,210,42.38337841883669,-71.01612031481636,1.0,0.0,8,12,4
2017-12-01 08:00,211,42.36543154627481,-71.03625655174254,0.0,1.0,8,12,4
2017-12-01 08:00,218,42.351586001198456,-71.04569256305693,0.0,7.0,8,12,4
2017-12-01 08:00,221,42.37250864997261,-71.11305356025694,1.0,0.0,8,12,4
2017-12-01 08:00,222,42.343749,-71.062256,2.0,1.0,8,12,4
2017-12-01 08:00,225,42.37119727759414,-71.09759867191316,2.0,3.0,8,12,4
2017-12-01 08:00,226,42.35154734791375,-71.12126246094705,3.0,1.0,8,12,4
2017-12-01 08:00,228,42.36161932076685,-71.08043550520959,0.0,7.0,8,12,4
2017-12-01 09:00,3,42.340115122492364,-71.10061883926393,0.0,1.0,9,12,4
2017-12-01 09:00,4,42.345392,-71.069616,1.0,0.0,9,12,4
2017-12-01 09:00,6,42.361199417496216,-71.06519486764228,2.0,4.0,9,12,4
2017-12-01 09:00,7,42.35294080239233,-71.04388475418091,0.0,2.0,9,12,4
2017-12-01 09:00,8,42.353334000000004,-71.137313,1.0,0.0,9,12,4
2017-12-01 09:00,9,42.35062177153799,-71.11288218766276,0.0,1.0,9,12,4
2017-12-01 09:00,10,42.350406,-71.10827900000001,1.0,3.0,9,12,4
2017-12-01 09:00,11,42.338629,-71.1065,1.0,3.0,9,12,4
2017-12-01 09:00,12,42.33624444796878,-71.08798563480376,1.0,2.0,9,12,4
2017-12-01 09:00,14,42.337417484597296,-71.10286116600038,1.0,2.0,9,12,4
2017-12-01 09:00,16,42.34807412317439,-71.07657015323639,0.0,5.0,9,12,4
2017-12-01 09:00,17,42.365064000000004,-71.119233,0.0,1.0,9,12,4
2017-12-01 09:00,19,42.347241,-71.105301,0.0,1.0,9,12,4
2017-12-01 09:00,20,42.35991176110118,-71.0514298081398,1.0,0.0,9,12,4
2017-12-01 09:00,22,42.352175,-71.055547,2.0,12.0,9,12,4
2017-12-01 09:00,23,42.35892,-71.057629,0.0,6.0,9,12,4
2017-12-01 09:00,24,42.35148193460858,-71.04436084628105,1.0,0.0,9,12,4
2017-12-01 09:00,29,42.363732,-71.124565,0.0,3.0,9,12,4
2017-12-01 09:00,30,42.33462893055976,-71.10407917767589,0.0,1.0,9,12,4
2017-12-01 09:00,32,42.345194289440954,-71.1016970872879,1.0,2.0,9,12,4
2017-12-01 09:00,33,42.348706,-71.097009,2.0,4.0,9,12,4
2017-12-01 09:00,35,42.35581929709065,-71.05887290099417,0.0,2.0,9,12,4
2017-12-01 09:00,36,42.34976701008725,-71.0773265361786,3.0,3.0,9,12,4
2017-12-01 09:00,39,42.338514601785995,-71.07404083013535,3.0,3.0,9,12,4
2017-12-01 09:00,40,42.363871,-71.050877,1.0,2.0,9,12,4
2017-12-01 09:00,42,42.352583438376996,-71.06766249993595,0.0,1.0,9,12,4
2017-12-01 09:00,43,42.357143,-71.050699,1.0,0.0,9,12,4
2017-12-01 09:00,44,42.360613,-71.057452,1.0,0.0,9,12,4
2017-12-01 09:00,46,42.3436658245146,-71.08582377433777,0.0,2.0,9,12,4
2017-12-01 09:00,47,42.362811,-71.056067,2.0,0.0,9,12,4
2017-12-01 09:00,49,42.351146,-71.066289,0.0,1.0,9,12,4
2017-12-01 09:00,54,42.354979,-71.063348,0.0,1.0,9,12,4
2017-12-01 09:00,56,42.32854046293402,-71.08416482806204,0.0,2.0,9,12,4
2017-12-01 09:00,57,42.340542615516355,-71.08138847914233,1.0,1.0,9,12,4
2017-12-01 09:00,58,42.355549323361345,-71.07284188270569,0.0,1.0,9,12,4
2017-12-01 09:00,60,42.36075761041193,-71.07132909824031,2.0,1.0,9,12,4
2017-12-01 09:00,65,42.347763454147454,-71.04535996913908,0.0,3.0,9,12,4
2017-12-01 09:00,67,42.3581,-71.093198,4.0,9.0,9,12,4
2017-12-01 09:00,68,42.36507,-71.1031,2.0,2.0,9,12,4
2017-12-01 09:00,69,42.341598,-71.123338,1.0,1.0,9,12,4
2017-12-01 09:00,70,42.371991654086756,-71.12226963043213,1.0,2.0,9,12,4
2017-12-01 09:00,71,42.383404999999996,-71.10759300000001,1.0,0.0,9,12,4
2017-12-01 09:00,72,42.362613,-71.08410500000001,0.0,3.0,9,12,4
2017-12-01 09:00,73,42.373231,-71.120886,1.0,3.0,9,12,4
2017-12-01 09:00,75,42.36346469304347,-71.10057324171065,0.0,2.0,9,12,4
2017-12-01 09:00,76,42.366426000000004,-71.10549499999999,0.0,1.0,9,12,4
2017-12-01 09:00,78,42.379637,-71.09531899999999,3.0,0.0,9,12,4
2017-12-01 09:00,79,42.37842,-71.10566800000001,4.0,1.0,9,12,4
2017-12-01 09:00,80,42.3621312344991,-71.09115600585936,1.0,14.0,9,12,4
2017-12-01 09:00,81,42.352409,-71.062679,1.0,3.0,9,12,4
2017-12-01 09:00,82,42.338254270769454,-71.13905482012342,2.0,0.0,9,12,4
2017-12-01 09:00,84,42.366981,-71.076472,0.0,3.0,9,12,4
2017-12-01 09:00,85,42.378338,-71.048927,0.0,1.0,9,12,4
2017-12-01 09:00,87,42.366621,-71.114214,3.0,0.0,9,12,4
2017-12-01 09:00,88,42.374035,-71.101427,2.0,0.0,9,12,4
2017-12-01 09:00,89,42.379011,-71.119945,0.0,2.0,9,12,4
2017-12-01 09:00,90,42.370677,-71.07652900000001,2.0,5.0,9,12,4
2017-12-01 09:00,91,42.366277000000004,-71.09169,3.0,4.0,9,12,4
2017-12-01 09:00,94,42.375603000000005,-71.06460799999999,0.0,1.0,9,12,4
2017-12-01 09:00,95,42.372969,-71.094445,2.0,0.0,9,12,4
2017-12-01 09:00,96,42.373379,-71.111075,1.0,1.0,9,12,4
2017-12-01 09:00,98,42.371848,-71.060292,0.0,1.0,9,12,4
2017-12-01 09:00,100,42.396969,-71.123024,0.0,3.0,9,12,4
2017-12-01 09:00,103,42.346563,-71.128374,2.0,0.0,9,12,4
2017-12-01 09:00,105,42.35721850317653,-71.1138716340065,2.0,0.0,9,12,4
2017-12-01 09:00,107,42.3625,-71.08821999999999,0.0,1.0,9,12,4
2017-12-01 09:00,108,42.377945000000004,-71.116865,0.0,3.0,9,12,4
2017-12-01 09:00,110,42.376369,-71.114025,2.0,2.0,9,12,4
2017-12-01 09:00,115,42.387995000000004,-71.119084,1.0,1.0,9,12,4
2017-12-01 09:00,117,42.366095,-71.086388,0.0,3.0,9,12,4
2017-12-01 09:00,118,42.397828000000004,-71.130516,0.0,2.0,9,12,4
2017-12-01 09:00,119,42.335741,-71.03877,1.0,0.0,9,12,4
2017-12-01 09:00,121,42.335693,-71.045859,0.0,1.0,9,12,4
2017-12-01 09:00,125,42.32176525723952,-71.10984160567114,3.0,0.0,9,12,4
2017-12-01 09:00,130,42.31750891943043,-71.06416625906604,2.0,0.0,9,12,4
2017-12-01 09:00,135,42.344827,-71.028664,0.0,5.0,9,12,4
2017-12-01 09:00,136,42.344796,-71.031614,0.0,3.0,9,12,4
2017-12-01 09:00,137,42.398365000000005,-71.10781800000001,1.0,0.0,9,12,4
2017-12-01 09:00,140,42.388965999999996,-71.132788,0.0,1.0,9,12,4
2017-12-01 09:00,141,42.36356015842989,-71.08216792345047,1.0,1.0,9,12,4
2017-12-01 09:00,145,42.392765999999995,-71.129042,1.0,0.0,9,12,4
2017-12-01 09:00,149,42.363796,-71.129164,3.0,0.0,9,12,4
2017-12-01 09:00,150,42.344136999999996,-71.05260799999999,0.0,1.0,9,12,4
2017-12-01 09:00,151,42.358155,-71.05216300000001,0.0,2.0,9,12,4
2017-12-01 09:00,152,42.345901,-71.063187,1.0,0.0,9,12,4
2017-12-01 09:00,157,42.353178091862524,-71.04817356923377,0.0,1.0,9,12,4
2017-12-01 09:00,160,42.33758601097239,-71.09627097845076,2.0,0.0,9,12,4
2017-12-01 09:00,161,42.3391085,-71.05144320000001,1.0,0.0,9,12,4
2017-12-01 09:00,178,42.359573201090434,-71.10129475593567,0.0,1.0,9,12,4
2017-12-01 09:00,179,42.35560121327927,-71.10394477844237,0.0,1.0,9,12,4
2017-12-01 09:00,180,42.37478628706384,-71.13320231437683,1.0,0.0,9,12,4
2017-12-01 09:00,184,42.35775309465199,-71.10393404960631,2.0,1.0,9,12,4
2017-12-01 09:00,185,42.365444861373994,-71.0827714204788,1.0,3.0,9,12,4
2017-12-01 09:00,186,42.3481,-71.03764,1.0,1.0,9,12,4
2017-12-01 09:00,189,42.362427842912396,-71.08495473861693,3.0,9.0,9,12,4
2017-12-01 09:00,190,42.365673,-71.064263,3.0,1.0,9,12,4
2017-12-01 09:00,192,42.354659000000005,-71.05318100000001,1.0,6.0,9,12,4
2017-12-01 09:00,195,42.3720597013741,-71.07202649116515,1.0,0.0,9,12,4
2017-12-01 09:00,196,42.317873293456024,-71.08243077993394,1.0,0.0,9,12,4
2017-12-01 09:00,200,42.332817,-71.081198,1.0,0.0,9,12,4
2017-12-01 09:00,218,42.351586001198456,-71.04569256305693,0.0,4.0,9,12,4
2017-12-01 09:00,221,42.37250864997261,-71.11305356025694,0.0,1.0,9,12,4
2017-12-01 09:00,225,42.37119727759414,-71.09759867191316,1.0,1.0,9,12,4
2017-12-01 09:00,228,42.36161932076685,-71.08043550520959,0.0,2.0,9,12,4
